<?xml version="1.0" encoding="UTF-8"?>
<svg width="28px" height="26px" viewBox="0 0 28 26" version="1.1" xmlns="http://www.w3.org/2000/svg" xmlns:xlink="http://www.w3.org/1999/xlink">
    <!-- Generator: Sketch 46.1 (44463) - http://www.bohemiancoding.com/sketch -->
    <title>rate@3x</title>
    <desc>Created with Sketch.</desc>
    <defs></defs>
    <g id="Components" stroke="none" stroke-width="1" fill="none" fill-rule="evenodd">
        <g id="Stuff" transform="translate(-389.000000, -118.000000)" stroke-width="1.5" stroke="#8B99B5">
            <g id="rate" transform="translate(392.000000, 121.000000)">
                <polygon points="11 0 13.6436667 8.4 22 8.392125 15.2779524 13.003725 17.7985238 21 11 16.12275 4.20147619 21 6.72204762 13.003725 0 8.392125 8.35633333 8.4"></polygon>
            </g>
        </g>
    </g>
</svg>