<?xml version="1.0" encoding="UTF-8"?>
<svg width="22px" height="22px" viewBox="0 0 22 22" version="1.1" xmlns="http://www.w3.org/2000/svg" xmlns:xlink="http://www.w3.org/1999/xlink">
    <!-- Generator: Sketch 46.1 (44463) - http://www.bohemiancoding.com/sketch -->
    <title>text_translate_icon</title>
    <desc>Created with Sketch.</desc>
    <defs></defs>
    <g id="Components" stroke="none" stroke-width="1" fill="none" fill-rule="evenodd">
        <g id="translation_list_long" transform="translate(-287.000000, -595.000000)" stroke="#FFFFFF">
            <g id="controls" transform="translate(66.000000, 567.000000)">
                <g id="text_translate_icon" transform="translate(222.000000, 29.000000)">
                    <g>
                        <polyline id="Stroke-1" stroke-width="2" points="0.536324324 4.32478632 1.07686486 0 19.4552432 0 19.9957838 4.32478632"></polyline>
                        <path d="M10,0 L10,20.542735" id="Stroke-3" stroke-width="2"></path>
                        <path d="M4.86064865,20 L15.6714595,20" id="Stroke-5" stroke-width="2"></path>
                    </g>
                </g>
            </g>
        </g>
    </g>
</svg>