<?xml version="1.0" encoding="UTF-8"?>
<svg width="25px" height="24px" viewBox="0 0 25 24" version="1.1" xmlns="http://www.w3.org/2000/svg" xmlns:xlink="http://www.w3.org/1999/xlink">
    <!-- Generator: Sketch 46.1 (44463) - http://www.bohemiancoding.com/sketch -->
    <title>voice_female@2x</title>
    <desc>Created with Sketch.</desc>
    <defs></defs>
    <g id="Components" stroke="none" stroke-width="1" fill="none" fill-rule="evenodd">
        <g id="Stuff" transform="translate(-345.000000, -78.000000)" stroke="#EF4879">
            <g id="voice_female" transform="translate(346.000000, 79.000000)">
                <g>
                    <path d="M22.5906489,22 L0.0800106383,22 L0.675074468,18.173913 C0.929542553,16.4335217 2.31639362,15.0599565 4.09375532,14.7878261 L6.8297766,14.3688696 C7.80507447,14.2454783 8.68837234,14.3229565 9.43807447,14.8638696 L11.3363085,16.2345652 L13.2130106,14.8566957 C13.9690745,14.301913 14.8910319,14.2454783 15.8570319,14.3506957 L18.590117,14.7787391 C20.3606277,15.0561304 21.7401383,16.4282609 21.994117,18.162913 L22.5906489,22 Z" id="Stroke-1" stroke-width="1.5"></path>
                    <path d="M15.7395851,4.7826087 C15.7395851,2.15934783 13.9915851,0 11.3353298,0 C8.67907447,0 6.93107447,2.15934783 6.93107447,4.7826087 C6.93107447,6.03278261 7.13367021,10.0434783 3.99490426,10.0434783 L3.99490426,10.5217391 C5.1532234,10.9000435 8.65754255,11.4782609 11.3353298,11.4782609 C14.0326915,11.4782609 17.5213511,10.9014783 18.6757553,10.5217391 L18.6757553,10.0434783 C15.6382872,10.0434783 15.7395851,5.72 15.7395851,4.7826087 Z" id="Stroke-3" stroke-width="1.5"></path>
                </g>
            </g>
        </g>
    </g>
</svg>