<?xml version="1.0" encoding="UTF-8"?>
<svg width="24px" height="24px" viewBox="0 0 24 24" version="1.1" xmlns="http://www.w3.org/2000/svg" xmlns:xlink="http://www.w3.org/1999/xlink">
    <!-- Generator: Sketch 46.1 (44463) - http://www.bohemiancoding.com/sketch -->
    <title>help</title>
    <desc>Created with Sketch.</desc>
    <defs></defs>
    <g id="Components" stroke="none" stroke-width="1" fill="none" fill-rule="evenodd">
        <g id="Stuff" transform="translate(-307.000000, -119.000000)">
            <g id="help" transform="translate(308.000000, 120.000000)">
                <g>
                    <path d="M22,11 C22,17.0753478 17.0753478,22 11,22 C4.92465217,22 0,17.0753478 0,11 C0,4.92465217 4.92465217,0 11,0 C17.0753478,0 22,4.92465217 22,11 Z" id="Stroke-1" stroke="#8B99B5" stroke-width="1.5"></path>
                    <path d="M12,6 C12,6.552 11.5525,7 11,7 C10.4475,7 10,6.552 10,6 C10,5.448 10.4475,5 11,5 C11.5525,5 12,5.448 12,6" id="Fill-3" fill="#8B99B5"></path>
                    <polyline id="Stroke-5" stroke="#8B99B5" stroke-width="1.5" points="11 16 11 10 9 10"></polyline>
                    <path d="M9,16 L13,16" id="Stroke-7" stroke="#8B99B5" stroke-width="1.5"></path>
                </g>
            </g>
        </g>
    </g>
</svg>