<?xml version="1.0" encoding="UTF-8"?>
<svg width="29px" height="34px" viewBox="0 0 29 34" version="1.1" xmlns="http://www.w3.org/2000/svg" xmlns:xlink="http://www.w3.org/1999/xlink">
    <!-- Generator: Sketch 46.1 (44463) - http://www.bohemiancoding.com/sketch -->
    <title>tip_arrow_1@2x</title>
    <desc>Created with Sketch.</desc>
    <defs></defs>
    <g id="Components" stroke="none" stroke-width="1" fill="none" fill-rule="evenodd" opacity="0.300000012">
        <g id="Stuff" transform="translate(-120.000000, -140.000000)" fill="#FFFFFF">
            <path d="M138.528815,141.206563 C137.38997,141.995063 136.190191,142.704226 135.007243,143.415699 C132.514781,144.9167 130.077251,146.488694 128.119895,148.652898 C127.810522,148.994256 127.514068,149.704959 127.822918,150.132331 C128.149905,150.586021 128.735768,150.137723 128.988512,149.85927 C130.851921,147.797641 133.291017,146.382397 135.658478,144.957396 C135.856679,144.838132 136.054359,144.717585 136.251387,144.597423 C135.415521,146.000214 134.657422,147.449735 133.946296,148.913506 C131.033682,154.901847 128.809099,161.212803 126.998143,167.60207 C126.200638,170.412146 125.483641,173.259323 125.01482,176.141548 C124.948927,176.553771 125.093109,177.116068 125.642568,176.97896 C126.175455,176.845318 126.587125,176.236676 126.669459,175.728554 C127.586355,170.065524 129.32385,164.494413 131.256545,159.096228 C133.281753,153.441542 135.600152,147.527918 139.219847,142.648124 C139.545138,142.412036 139.865601,142.17107 140.17967,141.920732 C138.462922,146.086741 136.847166,150.257628 136.404833,154.798631 C136.257128,156.312983 137.961741,155.38853 138.058167,154.385381 C138.584009,148.986553 140.831427,144.15901 142.860026,139.186143 C142.978243,139.123109 143.091762,139.059562 143.213501,139.007312 C144.045844,138.647339 144.471606,136.534614 143.18062,137.093574 C141.266583,137.922257 139.766174,139.586042 138.528815,141.206563 Z" id="tip_arrow_1" transform="translate(134.500000, 157.000000) scale(-1, 1) rotate(-165.000000) translate(-134.500000, -157.000000) "></path>
        </g>
    </g>
</svg>