<?xml version="1.0" encoding="UTF-8"?>
<svg width="13px" height="10px" viewBox="0 0 13 10" version="1.1" xmlns="http://www.w3.org/2000/svg" xmlns:xlink="http://www.w3.org/1999/xlink">
    <!-- Generator: Sketch 46.1 (44463) - http://www.bohemiancoding.com/sketch -->
    <title>Checkmark@3x</title>
    <desc>Created with Sketch.</desc>
    <defs></defs>
    <g id="Components" stroke="none" stroke-width="1" fill="none" fill-rule="evenodd">
        <g id="Stuff" transform="translate(-416.000000, -39.000000)" fill="#37A3F7">
            <g id="Checkmark" transform="translate(416.000000, 39.000000)">
                <polygon points="1.5 4.5 0 6 4 10 13 1.5 11.5 0 4 7"></polygon>
            </g>
        </g>
    </g>
</svg>