<?xml version="1.0" encoding="UTF-8"?>
<svg width="17px" height="27px" viewBox="0 0 17 27" version="1.1" xmlns="http://www.w3.org/2000/svg" xmlns:xlink="http://www.w3.org/1999/xlink">
    <!-- Generator: Sketch 46.1 (44463) - http://www.bohemiancoding.com/sketch -->
    <title>high_speed</title>
    <desc>Created with Sketch.</desc>
    <defs></defs>
    <g id="Components" stroke="none" stroke-width="1" fill="none" fill-rule="evenodd">
        <g id="Stuff" transform="translate(-415.000000, -76.000000)" stroke="#8B99B5">
            <g id="high_speed" transform="translate(416.000000, 77.000000)">
                <g>
                    <path d="M14.0684,13.7514286 C13.0294,12.4090816 10.9999,10.3310204 10.9999,7.14326531 L10.9999,5.71928571 C10.9999,2.79836735 9.0724,0.0580612245 7.4999,0.000408163265 C5.9279,0.0580612245 3.9999,2.79836735 3.9999,5.71928571 L3.9999,7.14326531 C3.9999,10.3310204 1.7054,12.4136735 0.6619,13.7514286 C-0.0066,14.6095918 -0.0001,16.8371429 -0.0001,16.8371429 L4.7499,16.8371429 L5.7499,18.3677551 L9.2499,18.3677551 L10.2499,16.8371429 L14.9999,16.8371429 C14.9999,16.8371429 15.0369,15.0029592 14.0684,13.7514286 Z" id="Stroke-1" stroke-width="1.5"></path>
                    <path d="M7.50005,24.4901531 C7.50005,24.4901531 9.00005,22.5401531 9.00005,21.5804592 C9.00005,20.6207653 8.18155,20.4085204 7.50005,20.4085204 C6.81805,20.4085204 6.00005,20.6207653 6.00005,21.5804592 C6.00005,22.5401531 7.50005,24.4901531 7.50005,24.4901531 Z" id="Stroke-3" stroke-width="1.5"></path>
                </g>
            </g>
        </g>
    </g>
</svg>