<?xml version="1.0" encoding="UTF-8"?>
<svg width="78px" height="78px" viewBox="0 0 78 78" version="1.1" xmlns="http://www.w3.org/2000/svg" xmlns:xlink="http://www.w3.org/1999/xlink">
    <!-- Generator: Sketch 46.1 (44463) - http://www.bohemiancoding.com/sketch -->
    <title>Fill 1</title>
    <desc>Created with Sketch.</desc>
    <defs></defs>
    <g id="Symbols" stroke="none" stroke-width="1" fill="none" fill-rule="evenodd" fill-opacity="0.3">
        <g id="mic_button" fill="#FFFFFF">
            <g id="mic">
                <path d="M41.0166077,0.979279256 C40.7399465,0.969398499 40.5324506,0.732260324 40.5522121,0.465479878 C40.5620929,0.188818674 40.7992311,-0.0186772284 41.0660115,0.00108428612 C41.3426727,0.0109650434 41.5501686,0.248103218 41.5304071,0.514883664 C41.5205263,0.781664111 41.3031497,0.979279256 41.0363692,0.979279256 L41.0166077,0.979279256 Z M36.1256329,1.0385638 C35.8489717,1.05832531 35.6118335,0.850829412 35.592072,0.574168208 C35.5723105,0.307387762 35.7798064,0.070249587 36.0465868,0.0504880725 C36.323248,0.0307265579 36.5603862,0.238222461 36.5801477,0.505002907 C36.5999092,0.781664111 36.3924133,1.01880229 36.1256329,1.0385638 L36.1256329,1.0385638 Z M45.8779403,1.55236318 L45.8680595,1.55236318 C45.6012791,1.50295939 45.4234255,1.2460597 45.4728293,0.979279256 C45.522233,0.71249881 45.7791327,0.534645179 46.0557939,0.584048965 C46.3225744,0.633452752 46.500428,0.890352441 46.4510242,1.15713289 C46.4016204,1.39427106 46.1941245,1.56224394 45.9668671,1.56224394 C45.9372248,1.56224394 45.9075826,1.56224394 45.8779403,1.55236318 L45.8779403,1.55236318 Z M30.6912164,1.32510576 C30.6418126,1.05832531 30.8097855,0.801425625 31.0765659,0.742141082 C31.3433464,0.682856538 31.6101268,0.860710169 31.6595306,1.12749062 C31.7188151,1.39427106 31.5508423,1.65117075 31.2741811,1.71045529 C31.2445388,1.72033605 31.2148965,1.72033605 31.1753735,1.72033605 C30.9481161,1.72033605 30.7406202,1.56224394 30.6912164,1.32510576 L30.6912164,1.32510576 Z M50.6207038,2.73805405 C50.3539233,2.65900799 50.2155927,2.38234679 50.2946388,2.1254471 C50.3835656,1.85866665 50.6602268,1.72033605 50.9171265,1.79938211 C51.183907,1.88830893 51.3222376,2.16497013 51.2431915,2.42186982 C51.1740262,2.62936572 50.9764111,2.76769632 50.7689152,2.76769632 C50.7195114,2.76769632 50.6701076,2.75781557 50.6207038,2.73805405 L50.6207038,2.73805405 Z M25.9286914,2.69853102 C25.8397646,2.44163133 25.9780952,2.16497013 26.2349948,2.06616256 C26.4918945,1.97723574 26.7784365,2.11556634 26.8673633,2.37246603 C26.9562901,2.62936572 26.8179595,2.91590768 26.5610598,3.0048345 C26.5017753,3.02459601 26.4523715,3.03447677 26.393087,3.03447677 C26.1954718,3.03447677 25.9978567,2.90602692 25.9286914,2.69853102 L25.9286914,2.69853102 Z M55.1658521,4.53635187 C54.9188332,4.41778279 54.8200256,4.12136007 54.928714,3.87434114 C55.0472831,3.62732221 55.3437058,3.52851463 55.5907247,3.63720296 C55.8377436,3.75577205 55.946432,4.05219477 55.8278629,4.2992137 C55.7389361,4.47706733 55.5610824,4.58575566 55.373348,4.58575566 C55.3041827,4.58575566 55.2350174,4.56599415 55.1658521,4.53635187 L55.1658521,4.53635187 Z M21.383543,4.67468248 C21.2649739,4.4375443 21.3637815,4.13124083 21.6009197,4.01267174 C21.8479386,3.89410265 22.1443613,3.99291022 22.2629304,4.23992916 C22.3913803,4.47706733 22.2826919,4.77349005 22.0455538,4.90193989 C21.9763885,4.93158217 21.8973424,4.95134368 21.8281771,4.95134368 C21.6404427,4.95134368 21.4724698,4.85253611 21.383543,4.67468248 L21.383543,4.67468248 Z M59.44422,6.89785286 C59.2169626,6.7496415 59.1477973,6.44333803 59.2960087,6.21608061 C59.44422,5.98882319 59.7505235,5.91965789 59.9777809,6.06786925 C60.2050383,6.21608061 60.2742036,6.52238409 60.1259923,6.7496415 C60.0370655,6.89785286 59.8789734,6.97689892 59.7110005,6.97689892 C59.6220737,6.97689892 59.5331469,6.94725665 59.44422,6.89785286 L59.44422,6.89785286 Z M17.1249366,7.22391785 C16.9767253,6.99666043 17.0360098,6.69035696 17.2632672,6.5421456 C17.4905247,6.38405348 17.7968281,6.44333803 17.9450395,6.67059544 C18.1031316,6.89785286 18.0438471,7.20415634 17.8165896,7.36224845 C17.7276628,7.41165224 17.638736,7.44129451 17.5399284,7.44129451 C17.3818363,7.44129451 17.2237442,7.36224845 17.1249366,7.22391785 L17.1249366,7.22391785 Z M63.3965229,9.79291474 L63.3866422,9.79291474 C63.1791463,9.61506111 63.149504,9.30875764 63.3273576,9.10126173 C63.5052113,8.88388507 63.8213955,8.86412356 64.0288914,9.03209643 C64.2363873,9.20995006 64.2660296,9.5261343 64.088176,9.7336302 C63.9893684,9.85219929 63.8510378,9.91148383 63.7127072,9.91148383 C63.5941381,9.91148383 63.4854498,9.8719608 63.3965229,9.79291474 L63.3965229,9.79291474 Z M13.2319183,10.2968334 C13.0540646,10.0893375 13.0738262,9.77315323 13.2813221,9.5952996 C13.488818,9.41744597 13.8050022,9.43720748 13.9828558,9.64470338 C14.1607095,9.84231853 14.1409479,10.1585028 13.933452,10.3363564 C13.8346445,10.4252832 13.7259561,10.4648062 13.6073871,10.4648062 C13.4690564,10.4648062 13.3307258,10.4055217 13.2319183,10.2968334 L13.2319183,10.2968334 Z M66.933834,13.1721337 C66.7460997,12.9646378 66.7559804,12.6583344 66.9634763,12.4706 C67.1610915,12.2828656 67.4772757,12.2927463 67.6551293,12.5002422 C67.8428637,12.6978574 67.832983,13.0140416 67.6353678,13.1918952 C67.5365602,13.2808221 67.4179912,13.3302258 67.2994221,13.3302258 C67.1610915,13.3302258 67.0326416,13.2709413 66.933834,13.1721337 L66.933834,13.1721337 Z M9.77365323,13.8341445 C9.56615733,13.6562908 9.54639581,13.3401066 9.72424944,13.1326107 C9.90210307,12.9349956 10.2182873,12.915234 10.4257832,13.0930877 C10.6233984,13.2709413 10.6431599,13.5871255 10.4653062,13.7946214 C10.3664987,13.9033098 10.2281681,13.9625943 10.0997182,13.9625943 C9.98114913,13.9625943 9.86258004,13.9131905 9.77365323,13.8341445 L9.77365323,13.8341445 Z M70.0166303,16.9663445 C69.8585382,16.7489679 69.907942,16.4327836 70.1351994,16.2746915 C70.3525761,16.1264802 70.6588795,16.1758839 70.8268524,16.3932606 C70.9750638,16.620518 70.92566,16.9268215 70.7082833,17.0849136 C70.6193565,17.1441982 70.5205489,17.1738404 70.4217414,17.1738404 C70.2636492,17.1738404 70.1154379,17.1046751 70.0166303,16.9663445 L70.0166303,16.9663445 Z M6.77978377,17.7864474 C6.55252636,17.638236 6.49324181,17.3220518 6.65133393,17.1046751 C6.79954529,16.8774177 7.11572952,16.8181332 7.33310618,16.9663445 C7.5603636,17.1244366 7.61964814,17.4307401 7.47143678,17.6579975 C7.37262921,17.7963281 7.21453709,17.8753742 7.05644498,17.8753742 C6.96751816,17.8753742 6.86871059,17.8457319 6.77978377,17.7864474 L6.77978377,17.7864474 Z M72.5856272,21.1360241 C72.4571774,20.8890052 72.5559849,20.5925824 72.7931231,20.4641326 C73.0302613,20.3356828 73.3365648,20.4246096 73.4650146,20.6716285 C73.5934645,20.9087667 73.4946569,21.2051894 73.2575187,21.3336392 C73.1784726,21.3731623 73.0994266,21.3929238 73.0203805,21.3929238 C72.8425269,21.3929238 72.674554,21.2941162 72.5856272,21.1360241 L72.5856272,21.1360241 Z M4.32935597,22.0944575 C4.08233704,21.9660077 3.98352947,21.669585 4.11197931,21.4225661 C4.2305484,21.1854279 4.52697112,21.0866203 4.77399005,21.2051894 C5.01112822,21.3336392 5.1099358,21.630062 4.99136671,21.8672001 C4.90243989,22.0450538 4.73446702,22.1438613 4.54673263,22.1438613 C4.47756733,22.1438613 4.39852127,22.1240998 4.32935597,22.0944575 L4.32935597,22.0944575 Z M74.6013017,25.5922456 C74.5024941,25.3353459 74.630944,25.048804 74.8878437,24.9598772 C75.1447433,24.8610696 75.4312853,24.9895194 75.5300929,25.2464191 C75.6190197,25.5033188 75.4905698,25.77998 75.2435509,25.8787876 C75.1842664,25.8985491 75.1249818,25.9084299 75.0656973,25.9084299 C74.8680821,25.9084299 74.6803478,25.7898608 74.6013017,25.5922456 L74.6013017,25.5922456 Z M2.44213133,26.6791289 C2.18523164,26.5803213 2.0567818,26.3036601 2.14570861,26.0467605 C2.23463543,25.7898608 2.51129663,25.6515302 2.77807708,25.740457 C3.03497677,25.8293838 3.16342661,26.1159258 3.0744998,26.3728254 C3.0053345,26.5803213 2.81760011,26.6988904 2.61010421,26.6988904 C2.55081966,26.6988904 2.50141588,26.6890097 2.44213133,26.6791289 L2.44213133,26.6791289 Z M76.0241307,30.2757246 C75.9648462,30.0089441 76.1229383,29.7421637 76.3897188,29.6828791 C76.6564992,29.6137138 76.9232797,29.7816867 76.9825642,30.0484672 C77.0517295,30.3152476 76.8837566,30.582028 76.6169762,30.6413126 C76.5774531,30.6511933 76.5379301,30.6610741 76.5082878,30.6610741 C76.2810304,30.6610741 76.0735345,30.502982 76.0241307,30.2757246 L76.0241307,30.2757246 Z M1.1773944,31.4614154 C0.910613955,31.4021309 0.732760324,31.1452312 0.792044868,30.8784508 C0.851329412,30.6116703 1.1082291,30.4436974 1.37500955,30.4931012 C1.64178999,30.5523858 1.81964362,30.8191662 1.76035908,31.0859467 C1.71095529,31.3132041 1.50345939,31.4712962 1.27620197,31.4712962 C1.2465597,31.4712962 1.20703667,31.4712962 1.1773944,31.4614154 L1.1773944,31.4614154 Z M76.8244721,35.0975341 C76.7948298,34.8307537 76.992445,34.5837347 77.2691062,34.5540925 C77.5457674,34.534331 77.7829055,34.7319461 77.8125478,34.9987265 C77.8421901,35.2753877 77.6445749,35.5125259 77.3679137,35.5421682 L77.3185099,35.5421682 C77.071491,35.5421682 76.8541144,35.3544338 76.8244721,35.0975341 L76.8244721,35.0975341 Z M0.525264422,36.3721518 C0.258483975,36.3523903 0.0509880725,36.1152521 0.070749587,35.8484717 C0.100391859,35.5718105 0.337530033,35.3741953 0.60431048,35.3939568 C0.880971683,35.4137184 1.07858683,35.6508565 1.05882531,35.9275177 C1.0390638,36.1844174 0.82168714,36.3820326 0.564787451,36.3820326 C0.554906693,36.3820326 0.545025936,36.3820326 0.525264422,36.3721518 L0.525264422,36.3721518 Z M77.4864828,40.4924276 C77.2197024,40.4924276 77.0023257,40.2651702 77.0122065,39.988509 C77.0122065,39.7118478 77.2394639,39.5043519 77.5161251,39.5043519 C77.7927863,39.5142326 78.0002822,39.74149 78.0002822,40.0181512 C77.9904014,40.2849317 77.7730248,40.4924276 77.5062443,40.4924276 L77.4864828,40.4924276 Z M0.00158428612,40.8580156 C-0.0181772284,40.5912352 0.189318674,40.3639777 0.465979878,40.3442162 C0.742641082,40.3343355 0.969898499,40.5418314 0.979779256,40.8184926 C0.999540771,41.085273 0.782164111,41.3224112 0.515383664,41.332292 L0.485741392,41.332292 C0.228841703,41.332292 0.0114650434,41.1247961 0.00158428612,40.8580156 L0.00158428612,40.8580156 Z M76.9825642,45.4229255 C76.7157837,45.3834024 76.5280494,45.1265027 76.5675724,44.8597223 C76.6070954,44.5929419 76.8639951,44.4052075 77.1307756,44.4447305 C77.397556,44.4941343 77.5852904,44.7411532 77.5457674,45.0178144 C77.5062443,45.2549526 77.2987484,45.4328062 77.0517295,45.4328062 C77.031968,45.4328062 77.0023257,45.4328062 76.9825642,45.4229255 L76.9825642,45.4229255 Z M0.554906693,45.847798 C0.505502907,45.5810176 0.683356538,45.3241179 0.960017742,45.2747141 C1.22679819,45.2253103 1.48369788,45.403164 1.53310166,45.6798252 C1.57262469,45.9466056 1.39477106,46.2035053 1.12799062,46.2529091 L1.04894456,46.2529091 C0.811806382,46.2529091 0.594429722,46.0849362 0.554906693,45.847798 L0.554906693,45.847798 Z M75.8462771,50.244735 C75.5794967,50.1755697 75.4312853,49.8989085 75.5103314,49.6321281 C75.5794967,49.3752284 75.8561579,49.227017 76.1229383,49.2961823 C76.379838,49.3752284 76.5280494,49.6518896 76.4588841,49.9087893 C76.3897188,50.1261659 76.1921036,50.2644965 75.9846077,50.2644965 C75.9352039,50.2644965 75.8858001,50.2644965 75.8462771,50.244735 L75.8462771,50.244735 Z M1.75047832,50.7288921 L1.75047832,50.7288921 C1.67143227,50.4621117 1.81964362,50.1854505 2.07654331,50.1064044 C2.333443,50.0174776 2.61010421,50.165689 2.69903102,50.4225886 C2.77807708,50.6893691 2.62986572,50.9660303 2.37296603,51.0450764 C2.32356225,51.0648379 2.27415846,51.0648379 2.22475467,51.0648379 C2.01725877,51.0648379 1.81964362,50.936388 1.75047832,50.7288921 L1.75047832,50.7288921 Z M74.0875023,54.8788102 C73.8404834,54.7701218 73.7219143,54.4835799 73.8404834,54.236561 C73.9491717,53.9796613 74.2357137,53.8709729 74.4827326,53.9796613 C74.7396323,54.0883496 74.8483206,54.3748916 74.7396323,54.6317912 C74.6605862,54.8195256 74.4827326,54.928214 74.2851175,54.928214 C74.2258329,54.928214 74.1566676,54.9084524 74.0875023,54.8788102 L74.0875023,54.8788102 Z M3.56853766,55.4024903 C3.45984933,55.1554714 3.56853766,54.8689294 3.81555659,54.7503603 C4.05269477,54.6317912 4.34911749,54.7404796 4.46768657,54.9874985 C4.58625566,55.2345174 4.47756733,55.5309402 4.2305484,55.6495092 C4.1613831,55.6791515 4.0922178,55.6890323 4.0230525,55.6890323 C3.83531811,55.6890323 3.65746448,55.5902247 3.56853766,55.4024903 L3.56853766,55.4024903 Z M71.7556436,59.2559856 C71.5185054,59.1077743 71.4493401,58.8113516 71.5876707,58.5742134 C71.7260013,58.3370752 72.0323048,58.2679099 72.269443,58.4062405 C72.4967004,58.5445711 72.5757465,58.8508746 72.4374158,59.0880128 C72.3386083,59.2362241 72.1805162,59.3251509 72.0125433,59.3251509 C71.9236165,59.3251509 71.8346897,59.3053894 71.7556436,59.2559856 L71.7556436,59.2559856 Z M5.97944244,59.8093081 L5.97944244,59.8093081 C5.83123108,59.5820506 5.90039638,59.2757472 6.12765379,59.1275358 C6.36479197,58.9892052 6.67109544,59.0583705 6.80942605,59.2856279 C6.95763741,59.5128853 6.8884721,59.8191888 6.66121469,59.9674002 C6.58216863,60.016804 6.48336106,60.0464462 6.39443424,60.0464462 C6.23634212,60.0464462 6.06836925,59.9575194 5.97944244,59.8093081 L5.97944244,59.8093081 Z M68.8803432,63.2873346 C68.6629666,63.1193617 68.6333243,62.8031775 68.8012972,62.5956816 C68.96927,62.3783049 69.2854543,62.3387819 69.4929502,62.5067548 C69.7103268,62.6846084 69.7498499,62.9909119 69.5719962,63.2082886 C69.4731887,63.3268576 69.3348581,63.3960229 69.1866467,63.3960229 C69.0779584,63.3960229 68.96927,63.3564999 68.8803432,63.2873346 L68.8803432,63.2873346 Z M8.9239081,63.8702993 C8.75593523,63.6628034 8.7855775,63.3564999 8.9930734,63.1786463 C9.20056931,63.0007927 9.51675354,63.0304349 9.68472641,63.2478116 C9.86258004,63.4553075 9.83293777,63.761611 9.62544187,63.9394646 C9.53651505,64.0185107 9.41794597,64.0481529 9.30925764,64.0481529 C9.17092703,64.0481529 9.02271568,63.9888684 8.9239081,63.8702993 L8.9239081,63.8702993 Z M65.511005,66.9234533 C65.3232706,66.7258381 65.3232706,66.4096539 65.5208858,66.2219195 C65.7185009,66.0341851 66.0248044,66.0341851 66.2224195,66.2318003 C66.4101539,66.4294154 66.4101539,66.7357189 66.2125388,66.933334 C66.1137312,67.0222609 65.9852814,67.0716647 65.8667123,67.0716647 C65.7382624,67.0716647 65.6098126,67.0222609 65.511005,66.9234533 L65.511005,66.9234533 Z M12.3722924,67.5261795 L12.3722924,67.5261795 C12.1746772,67.3384451 12.1647965,67.0222609 12.3525309,66.8246457 C12.5303845,66.6270306 12.8465687,66.6171498 13.0441839,66.8048842 C13.2516798,66.9827378 13.2615605,67.2989221 13.0738262,67.4965372 C12.9750186,67.6052255 12.8465687,67.6546293 12.7082381,67.6546293 C12.5896691,67.6546293 12.4711,67.6151063 12.3722924,67.5261795 L12.3722924,67.5261795 Z M61.7069135,70.0951764 C61.5488213,69.8777997 61.5883444,69.5714962 61.805721,69.4035234 C62.0230977,69.2454313 62.3294012,69.2849543 62.497374,69.5023309 C62.6653469,69.7197076 62.6159431,70.0358918 62.3985665,70.1939839 C62.3096396,70.2631492 62.2108321,70.2927915 62.1021437,70.2927915 C61.9539324,70.2927915 61.805721,70.2236262 61.7069135,70.0951764 L61.7069135,70.0951764 Z M16.25543,70.7077833 C16.0380533,70.5398105 15.9787688,70.233507 16.1467417,70.0161303 C16.3048338,69.7888729 16.6111373,69.7394691 16.8285139,69.8975612 C17.0557713,70.0556533 17.1051751,70.3718376 16.947083,70.5892142 C16.8482754,70.7275448 16.7000641,70.7967101 16.541972,70.7967101 C16.4431644,70.7967101 16.3443568,70.7670679 16.25543,70.7077833 L16.25543,70.7077833 Z M57.5273531,72.7629808 C57.3890225,72.5258427 57.4779493,72.2195392 57.7150875,72.0910893 C57.9522257,71.9527587 58.2486484,72.0318048 58.386979,72.2788237 C58.5253096,72.5159619 58.4363828,72.8123846 58.1992446,72.9507152 C58.1201986,72.9902383 58.0411525,73.0099998 57.9522257,73.0099998 C57.7842528,73.0099998 57.6162799,72.921073 57.5273531,72.7629808 L57.5273531,72.7629808 Z M20.5140364,73.3558263 C20.2670175,73.2273764 20.1780906,72.9309537 20.3065405,72.6938155 C20.4349903,72.4467966 20.7412938,72.3578698 20.978432,72.4962004 L20.978432,72.4863196 C21.2155701,72.6147695 21.304497,72.921073 21.1760471,73.1582111 C21.0871203,73.326184 20.9191474,73.4151108 20.7412938,73.4151108 C20.6622477,73.4151108 20.5832017,73.4052301 20.5140364,73.3558263 L20.5140364,73.3558263 Z M53.0414893,74.8675821 C52.932801,74.6106824 53.0513701,74.3241405 53.3082698,74.2253329 C53.5651695,74.1166446 53.8517114,74.2352137 53.950519,74.4921134 C54.0592073,74.7490131 53.9307575,75.035555 53.6837385,75.1343626 C53.624454,75.1640049 53.5552887,75.1738856 53.4960042,75.1738856 C53.298389,75.1738856 53.1205354,75.0553165 53.0414893,74.8675821 L53.0414893,74.8675821 Z M25.0690655,75.4505468 C24.8121658,75.3517392 24.683716,75.0651973 24.7825235,74.8082976 C24.8813311,74.5513979 25.1678731,74.4229481 25.4247727,74.5217556 C25.6816724,74.6205632 25.8101223,74.9071052 25.7113147,75.1640049 C25.6322687,75.36162 25.4445343,75.4801891 25.2469191,75.4801891 C25.1876346,75.4801891 25.12835,75.4703083 25.0690655,75.4505468 L25.0690655,75.4505468 Z M48.3086066,76.3694572 C48.2394413,76.1026768 48.3975334,75.8358964 48.6643139,75.7667311 C48.9310943,75.6975657 49.1978747,75.8556579 49.26704,76.1224383 C49.3362053,76.379338 49.1781132,76.6559992 48.9113328,76.7251645 C48.8718098,76.7350453 48.8322867,76.7350453 48.7927637,76.7350453 C48.575387,76.7350453 48.3678911,76.5967147 48.3086066,76.3694572 L48.3086066,76.3694572 Z M29.8711135,76.9326604 L29.8711135,76.9326604 C29.6043331,76.8634951 29.4363602,76.5967147 29.5055255,76.3299342 C29.56481,76.0631538 29.8315905,75.9050617 30.0983709,75.9643462 C30.3651514,76.0335115 30.5232435,76.3002919 30.463959,76.5670724 C30.4046744,76.7943298 30.2070593,76.9425412 29.9798019,76.9425412 C29.9402788,76.9425412 29.9007558,76.9425412 29.8711135,76.9326604 L29.8711135,76.9326604 Z M43.4373933,77.2488446 C43.3978702,76.9820642 43.5954854,76.7350453 43.8622658,76.705403 C44.1290463,76.66588 44.3760652,76.8536144 44.4155882,77.1302756 C44.4551113,77.397056 44.2574961,77.6440749 43.9907157,77.683598 L43.9215504,77.683598 C43.6844122,77.683598 43.4670355,77.5057443 43.4373933,77.2488446 L43.4373933,77.2488446 Z M34.8114922,77.7824055 C34.5447117,77.7527633 34.3470966,77.5057443 34.3767388,77.2389639 C34.4063811,76.9623027 34.6435193,76.7646875 34.9201805,76.7943298 C35.1869609,76.8239721 35.3845761,77.070991 35.3549338,77.3377715 C35.3252915,77.5946711 35.1177956,77.7824055 34.8608959,77.7824055 L34.8114922,77.7824055 Z M38.4871339,77.5057443 C38.4871339,77.2290831 38.7045105,77.0117065 38.9811717,77.0117065 C39.2578329,77.0117065 39.4752096,77.2290831 39.4752096,77.5057443 C39.4752096,77.7824055 39.2578329,77.9997822 38.9811717,77.9997822 C38.7045105,77.9997822 38.4871339,77.7824055 38.4871339,77.5057443 L38.4871339,77.5057443 Z" id="Fill-1"></path>
            </g>
        </g>
    </g>
</svg>