<?xml version="1.0" encoding="UTF-8"?>
<svg width="28px" height="28px" viewBox="0 0 28 28" version="1.1" xmlns="http://www.w3.org/2000/svg" xmlns:xlink="http://www.w3.org/1999/xlink">
    <!-- Generator: Sketch 46.1 (44463) - http://www.bohemiancoding.com/sketch -->
    <title>sound_dis@3x</title>
    <desc>Created with Sketch.</desc>
    <defs></defs>
    <g id="Components" stroke="none" stroke-width="1" fill="none" fill-rule="evenodd">
        <g id="Stuff" transform="translate(-304.000000, -30.000000)" stroke="#37A3F7">
            <g id="sound_dis" transform="translate(305.000000, 31.000000)">
                <g>
                    <circle id="Oval-2" stroke-width="1.5" opacity="0.300000012" cx="13" cy="13" r="13"></circle>
                    <g id="Page-1" transform="translate(7.000000, 7.000000)" stroke-width="1.5">
                        <polygon id="Stroke-1" stroke-linejoin="round" points="7.47252747 11.6636129 2.98901099 7.78103226 0 7.78103226 0 3.91006452 2.98901099 3.91006452 7.47252747 0.0507096774"></polygon>
                        <path d="M9.99670989,1.73748387 C10.7622703,2.91154839 11.2095011,4.33412903 11.2095011,5.85735484 C11.2095011,7.35077419 10.7794571,8.73270968 10.0407978,9.89283871" id="Stroke-5" stroke-linecap="round"></path>
                    </g>
                </g>
            </g>
        </g>
    </g>
</svg>