<?xml version="1.0" encoding="UTF-8"?>
<svg width="9px" height="16px" viewBox="0 0 9 16" version="1.1" xmlns="http://www.w3.org/2000/svg" xmlns:xlink="http://www.w3.org/1999/xlink">
    <!-- Generator: Sketch 46.1 (44463) - http://www.bohemiancoding.com/sketch -->
    <title>Page 1</title>
    <desc>Created with Sketch.</desc>
    <defs></defs>
    <g id="Components" stroke="none" stroke-width="1" fill="none" fill-rule="evenodd">
        <g id="translation_list" transform="translate(-35.000000, -146.000000)" stroke-width="1.5" stroke="#37A3F7">
            <g id="speech" transform="translate(16.000000, 86.000000)">
                <g id="separator" transform="translate(0.000000, 60.000000)">
                    <g id="Page-1" transform="translate(20.000000, 0.000000)">
                        <polyline id="Stroke-4" stroke-linecap="round" points="0 10 3.5 14 7 10"></polyline>
                        <path d="M4,0 L4,14" id="Stroke-1"></path>
                    </g>
                </g>
            </g>
        </g>
    </g>
</svg>