<?xml version="1.0" encoding="UTF-8"?>
<svg width="29px" height="34px" viewBox="0 0 29 34" version="1.1" xmlns="http://www.w3.org/2000/svg" xmlns:xlink="http://www.w3.org/1999/xlink">
    <!-- Generator: Sketch 46.1 (44463) - http://www.bohemiancoding.com/sketch -->
    <title>tip_arrow_1@2x</title>
    <desc>Created with Sketch.</desc>
    <defs></defs>
    <g id="Components" stroke="none" stroke-width="1" fill="none" fill-rule="evenodd" opacity="0.300000012">
        <g id="Stuff" transform="translate(-160.000000, -140.000000)" fill="#FFFFFF">
            <path d="M178.528815,141.206563 C177.38997,141.995063 176.190191,142.704226 175.007243,143.415699 C172.514781,144.9167 170.077251,146.488694 168.119895,148.652898 C167.810522,148.994256 167.514068,149.704959 167.822918,150.132331 C168.149905,150.586021 168.735768,150.137723 168.988512,149.85927 C170.851921,147.797641 173.291017,146.382397 175.658478,144.957396 C175.856679,144.838132 176.054359,144.717585 176.251387,144.597423 C175.415521,146.000214 174.657422,147.449735 173.946296,148.913506 C171.033682,154.901847 168.809099,161.212803 166.998143,167.60207 C166.200638,170.412146 165.483641,173.259323 165.01482,176.141548 C164.948927,176.553771 165.093109,177.116068 165.642568,176.97896 C166.175455,176.845318 166.587125,176.236676 166.669459,175.728554 C167.586355,170.065524 169.32385,164.494413 171.256545,159.096228 C173.281753,153.441542 175.600152,147.527918 179.219847,142.648124 C179.545138,142.412036 179.865601,142.17107 180.17967,141.920732 C178.462922,146.086741 176.847166,150.257628 176.404833,154.798631 C176.257128,156.312983 177.961741,155.38853 178.058167,154.385381 C178.584009,148.986553 180.831427,144.15901 182.860026,139.186143 C182.978243,139.123109 183.091762,139.059562 183.213501,139.007312 C184.045844,138.647339 184.471606,136.534614 183.18062,137.093574 C181.266583,137.922257 179.766174,139.586042 178.528815,141.206563 Z" id="tip_arrow_1" transform="translate(174.500000, 157.000000) rotate(-165.000000) translate(-174.500000, -157.000000) "></path>
        </g>
    </g>
</svg>