<?xml version="1.0" encoding="UTF-8"?>
<svg width="25px" height="24px" viewBox="0 0 25 24" version="1.1" xmlns="http://www.w3.org/2000/svg" xmlns:xlink="http://www.w3.org/1999/xlink">
    <!-- Generator: Sketch 46.1 (44463) - http://www.bohemiancoding.com/sketch -->
    <title>voice_male@2x</title>
    <desc>Created with Sketch.</desc>
    <defs></defs>
    <g id="Components" stroke="none" stroke-width="1" fill="none" fill-rule="evenodd">
        <g id="Stuff" transform="translate(-306.000000, -78.000000)" stroke="#37A3F7">
            <g id="voice_male" transform="translate(307.000000, 79.000000)">
                <g>
                    <path d="M15.9703681,4.49120435 C16.0853681,1.97076957 13.8915596,-0.000143478261 11.3268149,-0.000143478261 C8.76255957,-0.000143478261 6.53694255,1.98798696 6.68375106,4.49120435 C6.71311277,4.99433478 7.1995383,7.48559565 7.1995383,7.48559565 C7.60081489,9.6482913 9.04736809,11.4781174 11.3268149,11.4781174 C13.6067511,11.4781174 15.0244319,9.67603043 15.4545809,7.48559565 C15.4545809,7.48559565 15.9473681,4.99481304 15.9703681,4.49120435 Z" id="Stroke-1" stroke-width="1.5"></path>
                    <path d="M22.5810574,21.9997609 L0.0704191489,21.9997609 L0.61116383,18.080413 C0.837738298,16.7991522 2.02541915,15.9956739 3.32565319,15.7302391 L11.3257383,14.347587 L19.3223979,15.7221087 C20.6441638,16.0138478 21.8137383,16.7814565 22.0403128,18.0737174 L22.5810574,21.9997609 Z" id="Stroke-3" stroke-width="1.5"></path>
                </g>
            </g>
        </g>
    </g>
</svg>